Wikidata
…
Rows: 1011 Columns: 4
── Column specification ────────────────────────────────────────────────────────
Delimiter: ","
chr (4): person, deathdate, link, personLabel

ℹ Use `spec()` to retrieve the full column specification for this data.
ℹ Specify the column types or set `show_col_types = FALSE` to quiet this message.

# A tibble: 1,011 × 4
   person                                  deathdate           link  personLabel
   <chr>                                   <chr>               <chr> <chr>      
 1 http://www.wikidata.org/entity/Q124571  1819-05-18T00:00:0… http… Jean-Pierr…
 2 http://www.wikidata.org/entity/Q124571  1819-05-12T00:00:0… http… Jean-Pierr…
 3 http://www.wikidata.org/entity/Q127931  1929-01-01T00:00:0… http… Louis Rous…
 4 http://www.wikidata.org/entity/Q162597  1991-06-29T00:00:0… http… Henri Lefe…
 5 http://www.wikidata.org/entity/Q176060  1889-07-13T00:00:0… http… Victor-Ado…
 6 http://www.wikidata.org/entity/Q203719  1815-09-28T00:00:0… http… Nicolas De…
 7 http://www.wikidata.org/entity/Q2636575 1892-06-29T00:00:0… http… Ernest Mou…
 8 http://www.wikidata.org/entity/Q2707645 1955-07-24T00:00:0… http… Emmanuel d…
 9 http://www.wikidata.org/entity/Q2718878 1957-09-13T00:00:0… http… Guillaume …
10 http://www.wikidata.org/entity/Q2745819 1886-10-22T00:00:0… http… Ernest Des…
# ℹ 1,001 more rows
…
Dans R, avec glitter:

(ici je garde toutes les langues car tout à l’heure )

geographes_url=spq_init() %>% 
  spq_add('?person wdt:P106 wd:Q901402') %>% 
  spq_add("?person wdt:P27 wd:Q142") %>% 
  spq_add("?person wdt:P570 ?deathdate", .required=FALSE) %>% 
  spq_add("?link schema:about ?person", .required=FALSE) %>% 
  spq_perform()
#saveRDS(geographes_url,"data/geographes_url.RDS")
#geographes_url(readRDS("data/geographes_url.RDS"))

# A tibble: 3,372 × 3
   person                                deathdate            link              
   <chr>                                 <chr>                <chr>             
 1 http://www.wikidata.org/entity/Q20951 1905-07-04T00:00:00Z https://ar.wikipe…
 2 http://www.wikidata.org/entity/Q20951 1905-07-04T00:00:00Z https://arz.wikip…
 3 http://www.wikidata.org/entity/Q20951 1905-07-04T00:00:00Z https://ast.wikip…
 4 http://www.wikidata.org/entity/Q20951 1905-07-04T00:00:00Z https://avk.wikip…
 5 http://www.wikidata.org/entity/Q20951 1905-07-04T00:00:00Z https://az.wikipe…
 6 http://www.wikidata.org/entity/Q20951 1905-07-04T00:00:00Z https://bg.wikipe…
 7 http://www.wikidata.org/entity/Q20951 1905-07-04T00:00:00Z https://bg.wikiqu…
 8 http://www.wikidata.org/entity/Q20951 1905-07-04T00:00:00Z https://br.wikipe…
 9 http://www.wikidata.org/entity/Q20951 1905-07-04T00:00:00Z https://ca.wikipe…
10 http://www.wikidata.org/entity/Q20951 1905-07-04T00:00:00Z https://commons.w…
# ℹ 3,362 more rows
…
tib_genre_actors=df_films %>%
   head() %>% 
   mutate(data=purrr::map(film,get_genre_and_actors)) %>% 
   unnest(cols=data)

tib_genre_actors %>%
  select(film_label,genre_label,actor_label)

# A tibble: 260 × 3
   film_label             genre_label    actor_label                 
   <chr>                  <chr>          <chr>                       
 1 The Winds of the Aures war film       "Mustapha Kateb"            
 2 The Winds of the Aures war film       "Mohamed Chouikh"           
 3 The Winds of the Aures war film       "Aïcha Adjouri"             
 4 The Winds of the Aures war film       "Hassan El-Hassani"         
 5 The Winds of the Aures war film       "Hadj Smaine Mohamed Seghir"
 6 The Repentant          drama film     ""                          
 7 Under Two Flags        adventure film "Thomas Beck"               
 8 Under Two Flags        adventure film "Rolfe Sedan"               
 9 Under Two Flags        adventure film "Jean De Briac"             
10 Under Two Flags        adventure film "Gino Corrado"              
# ℹ 250 more rows
…
